module gitlab.com/go-cmds/gojq

go 1.17

require (
	github.com/google/go-cmp v0.5.4
	github.com/itchyny/timefmt-go v0.1.5
	github.com/mattn/go-isatty v0.0.16
	github.com/mattn/go-runewidth v0.0.14
	gopkg.in/yaml.v3 v3.0.1
)

require (
	github.com/rivo/uniseg v0.2.0 // indirect
	golang.org/x/sys v0.2.0 // indirect
)
